
===1 : ok ------------------------------------------------
Categories: crud 
afficher
<img src='... CategoriesProd.imgFile ... ?

===2 : ok ------------------------------------------------
Admin Role
acces autorisé...? user/admin => Controller

===3 : ok ------------------------------------------------
Carte 
Double Boucle sur les Cat / Produits

===4
1 page avec Acces à 2 entity...
Categories + Produits
Login ou Register ou MotPasse

=== A Corriger: 
Delete CatégoriesProd entrainne une erreur...

=== A Corriger: 
Afficher image dans le Form Produits



